[
    {
        "name": "Green salad with tomatoe",
        "prize": "4$",
        "id": 1,
        "ingredients": 
        [
            "Iceberg lettuce",
            "Tomatoes"
        ],
        "imageUrl": "Bilder/GreenSaladWithTomato.jpg"
    },
    {
        "name": "Tomato salad with mozzarella",
        "prize": "5$",
        "id": 2,
        "ingredients": 
        [
            "Tomato",
            "Mozzarella"
        ],
        "imageUrl": "Bilder/TomatoSaladWithMozzarella.jpg"
    },
    {
        "name": "Field salad with egg",
        "prize": "4$",
        "id": 3,
        "ingredients": 
        [
            "Field salad",
            "Egg"
        ],
        "imageUrl": "Bilder/FieldSaladWithEgg.jpg"
    },
    {
        "name": "Rocket with parmesan",
        "prize": "5$",
        "id": 4,
        "ingredients": 
        [
            "Rocket",
            "Parmesan"
        ],
        "imageUrl": "Bilder/RocketWithParmesan.jpg"
    }
]